Artist	Title	Time
ArtistA	Song0	300
"James Curd, Shyam P"	Taken All This Time Feat. Shyam P (Original Mix)	500
"James Curd, Shyam P"	Taken All This Time Feat. Shyam P (Original Mix)	500
"James Curd, Shyam P"	Taken All This Time Feat. Shyam P (Original Mix)	500
"Praise Cats, Andrea Love"	Shined On Me feat. Andrea Love (Les Bisous Extended Remix)	4:17
"Praise Cats, Andrea Love"	Shined On Me feat. Andrea Love (Les Bisous Extended Remix)	4:17
"Praise Cats, Andrea Love"	Shined On Me feat. Andrea Love (Les Bisous Extended Remix)	4:17
"The Shapeshifters, ARIA LYRIC"	YOLO feat. Aria Lyric (Extended Mix)	6:19
"The Shapeshifters, ARIA LYRIC"	YOLO feat. Aria Lyric (Extended Mix)	6:19
Horse Meat Disco	Love If You Need It (feat. Fi McCluskey) [Mousse T.'s Extended Classic Shizzle]	6:10
Horse Meat Disco	Love If You Need It (feat. Fi McCluskey) [Mousse T.'s Extended Classic Shizzle]	6:10
Horse Meat Disco	Love If You Need It (feat. Fi McCluskey) [Mousse T.'s Extended Classic Shizzle]	6:10
Horse Meat Disco	Love If You Need It (feat. Fi McCluskey) [Mousse T.'s Extended Classic Shizzle]	6:10
Discoslap	Having Funk	5:36
Discoslap	Having Funk	5:36
Discoslap	Having Funk	5:36
Discoslap	Having Funk	5:36
Discoslapfake	Having Funk	5:36
Discoslapfake123	Having Funk	5:36
